\relax 
\providecommand\hyper@newdestlabel[2]{}
\providecommand\HyperFirstAtBeginDocument{\AtBeginDocument}
\HyperFirstAtBeginDocument{\ifx\hyper@anchor\@undefined
\global\let\oldcontentsline\contentsline
\gdef\contentsline#1#2#3#4{\oldcontentsline{#1}{#2}{#3}}
\global\let\oldnewlabel\newlabel
\gdef\newlabel#1#2{\newlabelxx{#1}#2}
\gdef\newlabelxx#1#2#3#4#5#6{\oldnewlabel{#1}{{#2}{#3}}}
\AtEndDocument{\ifx\hyper@anchor\@undefined
\let\contentsline\oldcontentsline
\let\newlabel\oldnewlabel
\fi}
\fi}
\global\let\hyper@last\relax 
\gdef\HyperFirstAtBeginDocument#1{#1}
\providecommand\HyField@AuxAddToFields[1]{}
\providecommand\HyField@AuxAddToCoFields[2]{}
\providecommand \oddpage@label [2]{}
\@writefile{toc}{\contentsline {chapter}{\numberline {1}Class Index}{1}{chapter.1}}
\@writefile{lof}{\addvspace {10\p@ }}
\@writefile{lot}{\addvspace {10\p@ }}
\@writefile{toc}{\contentsline {section}{\numberline {1.1}Class List}{1}{section.1.1}}
\@writefile{toc}{\contentsline {chapter}{\numberline {2}File Index}{3}{chapter.2}}
\@writefile{lof}{\addvspace {10\p@ }}
\@writefile{lot}{\addvspace {10\p@ }}
\@writefile{toc}{\contentsline {section}{\numberline {2.1}File List}{3}{section.2.1}}
\@writefile{toc}{\contentsline {chapter}{\numberline {3}Class Documentation}{5}{chapter.3}}
\@writefile{lof}{\addvspace {10\p@ }}
\@writefile{lot}{\addvspace {10\p@ }}
\@writefile{toc}{\contentsline {section}{\numberline {3.1}select\discretionary {\unhbox \voidb@x \hbox {\relax \fontsize  {7}{8}\selectfont  $\leftarrow \joinrel  \rhook $}}{}{}\_\discretionary {\unhbox \voidb@x \hbox {\relax \fontsize  {7}{8}\selectfont  $\leftarrow \joinrel  \rhook $}}{}{}jobinfo Struct Reference}{5}{section.3.1}}
\newlabel{structselect__jobinfo}{{3.1}{5}{select\+\_\+jobinfo Struct Reference}{section.3.1}{}}
\newlabel{structselect__jobinfo_abe0d7af49e1c0f0579ffde5563d1e205}{{3.1}{5}{Public Attributes}{section*.2}{}}
\newlabel{structselect__jobinfo_a0e2bbc10ff62dc8491cda2c6a9e8a98b}{{3.1}{5}{Public Attributes}{section*.2}{}}
\newlabel{structselect__jobinfo_a634f9f0c505bd89b199f2316e7473d58}{{3.1}{5}{Public Attributes}{section*.2}{}}
\newlabel{structselect__jobinfo_a593a434d1788934604f0485d2edada86}{{3.1}{5}{Public Attributes}{section*.2}{}}
\newlabel{structselect__jobinfo_ac0eef74c9338e1f3f5d15297478973af}{{3.1}{5}{Public Attributes}{section*.2}{}}
\newlabel{structselect__jobinfo_ad87f4d084f22ebf5ee9798ffeb10cd83}{{3.1}{5}{Public Attributes}{section*.2}{}}
\newlabel{structselect__jobinfo_a2142095591ddfd68bb9e76bb19718049}{{3.1}{5}{Public Attributes}{section*.2}{}}
\newlabel{structselect__jobinfo_a11e1e196932deb5c82a8cac63228d546}{{3.1}{5}{Public Attributes}{section*.2}{}}
\newlabel{structselect__jobinfo_ac1fe9d014d0020e8fe478cafcc1078d9}{{3.1}{5}{Public Attributes}{section*.2}{}}
\@writefile{toc}{\contentsline {subsection}{\numberline {3.1.1}Detailed Description}{5}{subsection.3.1.1}}
\@writefile{toc}{\contentsline {chapter}{\numberline {4}File Documentation}{7}{chapter.4}}
\@writefile{lof}{\addvspace {10\p@ }}
\@writefile{lot}{\addvspace {10\p@ }}
\@writefile{toc}{\contentsline {section}{\numberline {4.1}dmr.\discretionary {\unhbox \voidb@x \hbox {\relax \fontsize  {7}{8}\selectfont  $\leftarrow \joinrel  \rhook $}}{}{}h File Reference}{7}{section.4.1}}
\newlabel{dmr_8h}{{4.1}{7}{dmr.\+h File Reference}{section.4.1}{}}
\newlabel{dmr_8h_a38a196d020f78f178a33927d741a03f2}{{4.1}{7}{Macros}{section*.4}{}}
\newlabel{dmr_8h_a36151618368affd148255e77785e365e}{{4.1}{7}{Macros}{section*.4}{}}
\newlabel{dmr_8h_a54cdeb8678aca8d7a70dcb061c1f4511}{{4.1}{8}{Typedefs}{section*.5}{}}
\newlabel{dmr_8h_a241752d6304d3e7b5fe2b23f09fd0ccd}{{4.1}{8}{Functions}{section*.6}{}}
\newlabel{dmr_8h_a671588b692b3f8152fda5d4eba4e2cb9}{{4.1}{8}{Functions}{section*.6}{}}
\newlabel{dmr_8h_a49a3e8178a96c1b2e395fadfe2790602}{{4.1}{8}{Functions}{section*.6}{}}
\newlabel{dmr_8h_a9d303ab00e4a981a94525568a9a248aa}{{4.1}{8}{Functions}{section*.6}{}}
\newlabel{dmr_8h_ae4fa7e75c8bbad66f5d66fe29bc0757f}{{4.1}{8}{Functions}{section*.6}{}}
\newlabel{dmr_8h_a4c5f38dc546a05273a35bee8680ffc95}{{4.1}{8}{Functions}{section*.6}{}}
\newlabel{dmr_8h_aadca74971502f4dbf709dd6333ff2ebb}{{4.1}{8}{Variables}{section*.7}{}}
\newlabel{dmr_8h_a624b3f771c8fa1a1ad9da08f4dc2f925}{{4.1}{8}{Variables}{section*.7}{}}
\newlabel{dmr_8h_acf645981fd984b2a1487889959fa6076}{{4.1}{8}{Variables}{section*.7}{}}
\newlabel{dmr_8h_acdc88073dd8e6d9e9a8d3a50f1405980}{{4.1}{8}{Variables}{section*.7}{}}
\@writefile{toc}{\contentsline {subsection}{\numberline {4.1.1}Detailed Description}{8}{subsection.4.1.1}}
\@writefile{toc}{\contentsline {subsection}{\numberline {4.1.2}Macro Definition Documentation}{9}{subsection.4.1.2}}
\newlabel{dmr_8h_a0681a933dd2a5e193d68d7d29ae47e17}{{4.1.2}{9}{Macro Definition Documentation}{subsection.4.1.2}{}}
\@writefile{toc}{\contentsline {subsubsection}{\numberline {4.1.2.1}D\discretionary {\unhbox \voidb@x \hbox {\relax \fontsize  {7}{8}\selectfont  $\leftarrow \joinrel  \rhook $}}{}{}M\discretionary {\unhbox \voidb@x \hbox {\relax \fontsize  {7}{8}\selectfont  $\leftarrow \joinrel  \rhook $}}{}{}R\discretionary {\unhbox \voidb@x \hbox {\relax \fontsize  {7}{8}\selectfont  $\leftarrow \joinrel  \rhook $}}{}{}\_\discretionary {\unhbox \voidb@x \hbox {\relax \fontsize  {7}{8}\selectfont  $\leftarrow \joinrel  \rhook $}}{}{}\discretionary {\unhbox \voidb@x \hbox {\relax \fontsize  {7}{8}\selectfont  $\leftarrow \joinrel  \rhook $}}{}{}R\discretionary {\unhbox \voidb@x \hbox {\relax \fontsize  {7}{8}\selectfont  $\leftarrow \joinrel  \rhook $}}{}{}E\discretionary {\unhbox \voidb@x \hbox {\relax \fontsize  {7}{8}\selectfont  $\leftarrow \joinrel  \rhook $}}{}{}C\discretionary {\unhbox \voidb@x \hbox {\relax \fontsize  {7}{8}\selectfont  $\leftarrow \joinrel  \rhook $}}{}{}O\discretionary {\unhbox \voidb@x \hbox {\relax \fontsize  {7}{8}\selectfont  $\leftarrow \joinrel  \rhook $}}{}{}N\discretionary {\unhbox \voidb@x \hbox {\relax \fontsize  {7}{8}\selectfont  $\leftarrow \joinrel  \rhook $}}{}{}F\discretionary {\unhbox \voidb@x \hbox {\relax \fontsize  {7}{8}\selectfont  $\leftarrow \joinrel  \rhook $}}{}{}IG}{9}{subsubsection.4.1.2.1}}
\newlabel{dmr_8h_ae318fa80d26f8c42496868124c4e6c37}{{4.1.2.1}{9}{\texorpdfstring {D\+M\+R\+\_\+\+R\+E\+C\+O\+N\+F\+IG}{DMR\_RECONFIG}}{subsubsection.4.1.2.1}{}}
\@writefile{toc}{\contentsline {subsubsection}{\numberline {4.1.2.2}D\discretionary {\unhbox \voidb@x \hbox {\relax \fontsize  {7}{8}\selectfont  $\leftarrow \joinrel  \rhook $}}{}{}M\discretionary {\unhbox \voidb@x \hbox {\relax \fontsize  {7}{8}\selectfont  $\leftarrow \joinrel  \rhook $}}{}{}R\discretionary {\unhbox \voidb@x \hbox {\relax \fontsize  {7}{8}\selectfont  $\leftarrow \joinrel  \rhook $}}{}{}\_\discretionary {\unhbox \voidb@x \hbox {\relax \fontsize  {7}{8}\selectfont  $\leftarrow \joinrel  \rhook $}}{}{}\discretionary {\unhbox \voidb@x \hbox {\relax \fontsize  {7}{8}\selectfont  $\leftarrow \joinrel  \rhook $}}{}{}R\discretionary {\unhbox \voidb@x \hbox {\relax \fontsize  {7}{8}\selectfont  $\leftarrow \joinrel  \rhook $}}{}{}E\discretionary {\unhbox \voidb@x \hbox {\relax \fontsize  {7}{8}\selectfont  $\leftarrow \joinrel  \rhook $}}{}{}C\discretionary {\unhbox \voidb@x \hbox {\relax \fontsize  {7}{8}\selectfont  $\leftarrow \joinrel  \rhook $}}{}{}O\discretionary {\unhbox \voidb@x \hbox {\relax \fontsize  {7}{8}\selectfont  $\leftarrow \joinrel  \rhook $}}{}{}N\discretionary {\unhbox \voidb@x \hbox {\relax \fontsize  {7}{8}\selectfont  $\leftarrow \joinrel  \rhook $}}{}{}F\discretionary {\unhbox \voidb@x \hbox {\relax \fontsize  {7}{8}\selectfont  $\leftarrow \joinrel  \rhook $}}{}{}I\discretionary {\unhbox \voidb@x \hbox {\relax \fontsize  {7}{8}\selectfont  $\leftarrow \joinrel  \rhook $}}{}{}G\discretionary {\unhbox \voidb@x \hbox {\relax \fontsize  {7}{8}\selectfont  $\leftarrow \joinrel  \rhook $}}{}{}\_\discretionary {\unhbox \voidb@x \hbox {\relax \fontsize  {7}{8}\selectfont  $\leftarrow \joinrel  \rhook $}}{}{}\discretionary {\unhbox \voidb@x \hbox {\relax \fontsize  {7}{8}\selectfont  $\leftarrow \joinrel  \rhook $}}{}{}M\discretionary {\unhbox \voidb@x \hbox {\relax \fontsize  {7}{8}\selectfont  $\leftarrow \joinrel  \rhook $}}{}{}U\discretionary {\unhbox \voidb@x \hbox {\relax \fontsize  {7}{8}\selectfont  $\leftarrow \joinrel  \rhook $}}{}{}L\discretionary {\unhbox \voidb@x \hbox {\relax \fontsize  {7}{8}\selectfont  $\leftarrow \joinrel  \rhook $}}{}{}T\discretionary {\unhbox \voidb@x \hbox {\relax \fontsize  {7}{8}\selectfont  $\leftarrow \joinrel  \rhook $}}{}{}I\discretionary {\unhbox \voidb@x \hbox {\relax \fontsize  {7}{8}\selectfont  $\leftarrow \joinrel  \rhook $}}{}{}P\discretionary {\unhbox \voidb@x \hbox {\relax \fontsize  {7}{8}\selectfont  $\leftarrow \joinrel  \rhook $}}{}{}L\discretionary {\unhbox \voidb@x \hbox {\relax \fontsize  {7}{8}\selectfont  $\leftarrow \joinrel  \rhook $}}{}{}E\discretionary {\unhbox \voidb@x \hbox {\relax \fontsize  {7}{8}\selectfont  $\leftarrow \joinrel  \rhook $}}{}{}\_\discretionary {\unhbox \voidb@x \hbox {\relax \fontsize  {7}{8}\selectfont  $\leftarrow \joinrel  \rhook $}}{}{}1}{9}{subsubsection.4.1.2.2}}
\newlabel{dmr_8h_a614217d263be1fb1a5f76e2ff7be19a2}{{4.1.2.2}{9}{\texorpdfstring {D\+M\+R\+\_\+\+R\+E\+C\+O\+N\+F\+I\+G\+\_\+\+M\+U\+L\+T\+I\+P\+L\+E\+\_\+1}{DMR\_RECONFIG\_MULTIPLE\_1}}{subsubsection.4.1.2.2}{}}
\gdef \LT@i {\LT@entry 
    {3}{83.82672pt}\LT@entry 
    {3}{371.41739pt}}
\@writefile{toc}{\contentsline {subsubsection}{\numberline {4.1.2.3}P\discretionary {\unhbox \voidb@x \hbox {\relax \fontsize  {7}{8}\selectfont  $\leftarrow \joinrel  \rhook $}}{}{}O\discretionary {\unhbox \voidb@x \hbox {\relax \fontsize  {7}{8}\selectfont  $\leftarrow \joinrel  \rhook $}}{}{}RT}{10}{subsubsection.4.1.2.3}}
\@writefile{toc}{\contentsline {subsection}{\numberline {4.1.3}Function Documentation}{10}{subsection.4.1.3}}
\newlabel{dmr_8h_ae5395677d1fb177d987911b9088bdc37}{{4.1.3}{10}{Function Documentation}{subsection.4.1.3}{}}
\@writefile{toc}{\contentsline {subsubsection}{\numberline {4.1.3.1}check\discretionary {\unhbox \voidb@x \hbox {\relax \fontsize  {7}{8}\selectfont  $\leftarrow \joinrel  \rhook $}}{}{}Iter\discretionary {\unhbox \voidb@x \hbox {\relax \fontsize  {7}{8}\selectfont  $\leftarrow \joinrel  \rhook $}}{}{}Inhibitor()}{10}{subsubsection.4.1.3.1}}
\newlabel{dmr_8h_aa60ea3c66991d6510da118683cc4a613}{{4.1.3.1}{10}{\texorpdfstring {check\+Iter\+Inhibitor()}{checkIterInhibitor()}}{subsubsection.4.1.3.1}{}}
\@writefile{toc}{\contentsline {subsubsection}{\numberline {4.1.3.2}dmr\discretionary {\unhbox \voidb@x \hbox {\relax \fontsize  {7}{8}\selectfont  $\leftarrow \joinrel  \rhook $}}{}{}\_\discretionary {\unhbox \voidb@x \hbox {\relax \fontsize  {7}{8}\selectfont  $\leftarrow \joinrel  \rhook $}}{}{}detach()}{10}{subsubsection.4.1.3.2}}
\gdef \LT@ii {\LT@entry 
    {3}{47.32327pt}\LT@entry 
    {3}{237.3234pt}}
\gdef \LT@iii {\LT@entry 
    {3}{47.32327pt}\LT@entry 
    {3}{237.3234pt}}
\newlabel{dmr_8h_a7d795727c1da2f4d33e29182fc4dbb5a}{{4.1.3.2}{11}{\texorpdfstring {dmr\+\_\+detach()}{dmr\_detach()}}{table.4.1}{}}
\@writefile{toc}{\contentsline {subsubsection}{\numberline {4.1.3.3}dmr\discretionary {\unhbox \voidb@x \hbox {\relax \fontsize  {7}{8}\selectfont  $\leftarrow \joinrel  \rhook $}}{}{}\_\discretionary {\unhbox \voidb@x \hbox {\relax \fontsize  {7}{8}\selectfont  $\leftarrow \joinrel  \rhook $}}{}{}mpi\discretionary {\unhbox \voidb@x \hbox {\relax \fontsize  {7}{8}\selectfont  $\leftarrow \joinrel  \rhook $}}{}{}\_\discretionary {\unhbox \voidb@x \hbox {\relax \fontsize  {7}{8}\selectfont  $\leftarrow \joinrel  \rhook $}}{}{}recv()}{11}{subsubsection.4.1.3.3}}
\newlabel{dmr_8h_a80d48c1e9bdec9379e5eef8733e609df}{{4.1.3.3}{11}{\texorpdfstring {dmr\+\_\+mpi\+\_\+recv()}{dmr\_mpi\_recv()}}{table.4.2}{}}
\@writefile{toc}{\contentsline {subsubsection}{\numberline {4.1.3.4}dmr\discretionary {\unhbox \voidb@x \hbox {\relax \fontsize  {7}{8}\selectfont  $\leftarrow \joinrel  \rhook $}}{}{}\_\discretionary {\unhbox \voidb@x \hbox {\relax \fontsize  {7}{8}\selectfont  $\leftarrow \joinrel  \rhook $}}{}{}mpi\discretionary {\unhbox \voidb@x \hbox {\relax \fontsize  {7}{8}\selectfont  $\leftarrow \joinrel  \rhook $}}{}{}\_\discretionary {\unhbox \voidb@x \hbox {\relax \fontsize  {7}{8}\selectfont  $\leftarrow \joinrel  \rhook $}}{}{}send()}{11}{subsubsection.4.1.3.4}}
\gdef \LT@iv {\LT@entry 
    {3}{83.82672pt}\LT@entry 
    {3}{371.41739pt}}
\newlabel{dmr_8h_a02cc6690e5aa89debb730e6b9e669d6d}{{4.1.3.4}{12}{\texorpdfstring {dmr\+\_\+mpi\+\_\+send()}{dmr\_mpi\_send()}}{table.4.3}{}}
\@writefile{toc}{\contentsline {subsubsection}{\numberline {4.1.3.5}dmr\discretionary {\unhbox \voidb@x \hbox {\relax \fontsize  {7}{8}\selectfont  $\leftarrow \joinrel  \rhook $}}{}{}\_\discretionary {\unhbox \voidb@x \hbox {\relax \fontsize  {7}{8}\selectfont  $\leftarrow \joinrel  \rhook $}}{}{}reconfiguration()}{12}{subsubsection.4.1.3.5}}
\newlabel{dmr_8h_a218a2a11adbe4a726ea6ca7ff9042faf}{{4.1.3.5}{12}{\texorpdfstring {dmr\+\_\+reconfiguration()}{dmr\_reconfiguration()}}{table.4.4}{}}
\gdef \LT@v {\LT@entry 
    {3}{29.80077pt}\LT@entry 
    {3}{208.02046pt}}
\@writefile{toc}{\contentsline {subsubsection}{\numberline {4.1.3.6}dmr\discretionary {\unhbox \voidb@x \hbox {\relax \fontsize  {7}{8}\selectfont  $\leftarrow \joinrel  \rhook $}}{}{}\_\discretionary {\unhbox \voidb@x \hbox {\relax \fontsize  {7}{8}\selectfont  $\leftarrow \joinrel  \rhook $}}{}{}set\discretionary {\unhbox \voidb@x \hbox {\relax \fontsize  {7}{8}\selectfont  $\leftarrow \joinrel  \rhook $}}{}{}\_\discretionary {\unhbox \voidb@x \hbox {\relax \fontsize  {7}{8}\selectfont  $\leftarrow \joinrel  \rhook $}}{}{}parameters()}{13}{subsubsection.4.1.3.6}}
\@writefile{toc}{\contentsline {chapter}{Index}{15}{section*.8}}
