\contentsline {chapter}{\numberline {1}Class Index}{1}{chapter.1}
\contentsline {section}{\numberline {1.1}Class List}{1}{section.1.1}
\contentsline {chapter}{\numberline {2}File Index}{3}{chapter.2}
\contentsline {section}{\numberline {2.1}File List}{3}{section.2.1}
\contentsline {chapter}{\numberline {3}Class Documentation}{5}{chapter.3}
\contentsline {section}{\numberline {3.1}select\discretionary {\unhbox \voidb@x \hbox {\relax \fontsize {7}{8}\selectfont $\leftarrow \joinrel \rhook $}}{}{}\_\discretionary {\unhbox \voidb@x \hbox {\relax \fontsize {7}{8}\selectfont $\leftarrow \joinrel \rhook $}}{}{}jobinfo Struct Reference}{5}{section.3.1}
\contentsline {subsection}{\numberline {3.1.1}Detailed Description}{5}{subsection.3.1.1}
\contentsline {chapter}{\numberline {4}File Documentation}{7}{chapter.4}
\contentsline {section}{\numberline {4.1}dmr.\discretionary {\unhbox \voidb@x \hbox {\relax \fontsize {7}{8}\selectfont $\leftarrow \joinrel \rhook $}}{}{}h File Reference}{7}{section.4.1}
\contentsline {subsection}{\numberline {4.1.1}Detailed Description}{8}{subsection.4.1.1}
\contentsline {subsection}{\numberline {4.1.2}Macro Definition Documentation}{9}{subsection.4.1.2}
\contentsline {subsubsection}{\numberline {4.1.2.1}D\discretionary {\unhbox \voidb@x \hbox {\relax \fontsize {7}{8}\selectfont $\leftarrow \joinrel \rhook $}}{}{}M\discretionary {\unhbox \voidb@x \hbox {\relax \fontsize {7}{8}\selectfont $\leftarrow \joinrel \rhook $}}{}{}R\discretionary {\unhbox \voidb@x \hbox {\relax \fontsize {7}{8}\selectfont $\leftarrow \joinrel \rhook $}}{}{}\_\discretionary {\unhbox \voidb@x \hbox {\relax \fontsize {7}{8}\selectfont $\leftarrow \joinrel \rhook $}}{}{}\discretionary {\unhbox \voidb@x \hbox {\relax \fontsize {7}{8}\selectfont $\leftarrow \joinrel \rhook $}}{}{}R\discretionary {\unhbox \voidb@x \hbox {\relax \fontsize {7}{8}\selectfont $\leftarrow \joinrel \rhook $}}{}{}E\discretionary {\unhbox \voidb@x \hbox {\relax \fontsize {7}{8}\selectfont $\leftarrow \joinrel \rhook $}}{}{}C\discretionary {\unhbox \voidb@x \hbox {\relax \fontsize {7}{8}\selectfont $\leftarrow \joinrel \rhook $}}{}{}O\discretionary {\unhbox \voidb@x \hbox {\relax \fontsize {7}{8}\selectfont $\leftarrow \joinrel \rhook $}}{}{}N\discretionary {\unhbox \voidb@x \hbox {\relax \fontsize {7}{8}\selectfont $\leftarrow \joinrel \rhook $}}{}{}F\discretionary {\unhbox \voidb@x \hbox {\relax \fontsize {7}{8}\selectfont $\leftarrow \joinrel \rhook $}}{}{}IG}{9}{subsubsection.4.1.2.1}
\contentsline {subsubsection}{\numberline {4.1.2.2}D\discretionary {\unhbox \voidb@x \hbox {\relax \fontsize {7}{8}\selectfont $\leftarrow \joinrel \rhook $}}{}{}M\discretionary {\unhbox \voidb@x \hbox {\relax \fontsize {7}{8}\selectfont $\leftarrow \joinrel \rhook $}}{}{}R\discretionary {\unhbox \voidb@x \hbox {\relax \fontsize {7}{8}\selectfont $\leftarrow \joinrel \rhook $}}{}{}\_\discretionary {\unhbox \voidb@x \hbox {\relax \fontsize {7}{8}\selectfont $\leftarrow \joinrel \rhook $}}{}{}\discretionary {\unhbox \voidb@x \hbox {\relax \fontsize {7}{8}\selectfont $\leftarrow \joinrel \rhook $}}{}{}R\discretionary {\unhbox \voidb@x \hbox {\relax \fontsize {7}{8}\selectfont $\leftarrow \joinrel \rhook $}}{}{}E\discretionary {\unhbox \voidb@x \hbox {\relax \fontsize {7}{8}\selectfont $\leftarrow \joinrel \rhook $}}{}{}C\discretionary {\unhbox \voidb@x \hbox {\relax \fontsize {7}{8}\selectfont $\leftarrow \joinrel \rhook $}}{}{}O\discretionary {\unhbox \voidb@x \hbox {\relax \fontsize {7}{8}\selectfont $\leftarrow \joinrel \rhook $}}{}{}N\discretionary {\unhbox \voidb@x \hbox {\relax \fontsize {7}{8}\selectfont $\leftarrow \joinrel \rhook $}}{}{}F\discretionary {\unhbox \voidb@x \hbox {\relax \fontsize {7}{8}\selectfont $\leftarrow \joinrel \rhook $}}{}{}I\discretionary {\unhbox \voidb@x \hbox {\relax \fontsize {7}{8}\selectfont $\leftarrow \joinrel \rhook $}}{}{}G\discretionary {\unhbox \voidb@x \hbox {\relax \fontsize {7}{8}\selectfont $\leftarrow \joinrel \rhook $}}{}{}\_\discretionary {\unhbox \voidb@x \hbox {\relax \fontsize {7}{8}\selectfont $\leftarrow \joinrel \rhook $}}{}{}\discretionary {\unhbox \voidb@x \hbox {\relax \fontsize {7}{8}\selectfont $\leftarrow \joinrel \rhook $}}{}{}M\discretionary {\unhbox \voidb@x \hbox {\relax \fontsize {7}{8}\selectfont $\leftarrow \joinrel \rhook $}}{}{}U\discretionary {\unhbox \voidb@x \hbox {\relax \fontsize {7}{8}\selectfont $\leftarrow \joinrel \rhook $}}{}{}L\discretionary {\unhbox \voidb@x \hbox {\relax \fontsize {7}{8}\selectfont $\leftarrow \joinrel \rhook $}}{}{}T\discretionary {\unhbox \voidb@x \hbox {\relax \fontsize {7}{8}\selectfont $\leftarrow \joinrel \rhook $}}{}{}I\discretionary {\unhbox \voidb@x \hbox {\relax \fontsize {7}{8}\selectfont $\leftarrow \joinrel \rhook $}}{}{}P\discretionary {\unhbox \voidb@x \hbox {\relax \fontsize {7}{8}\selectfont $\leftarrow \joinrel \rhook $}}{}{}L\discretionary {\unhbox \voidb@x \hbox {\relax \fontsize {7}{8}\selectfont $\leftarrow \joinrel \rhook $}}{}{}E\discretionary {\unhbox \voidb@x \hbox {\relax \fontsize {7}{8}\selectfont $\leftarrow \joinrel \rhook $}}{}{}\_\discretionary {\unhbox \voidb@x \hbox {\relax \fontsize {7}{8}\selectfont $\leftarrow \joinrel \rhook $}}{}{}1}{9}{subsubsection.4.1.2.2}
\contentsline {subsubsection}{\numberline {4.1.2.3}P\discretionary {\unhbox \voidb@x \hbox {\relax \fontsize {7}{8}\selectfont $\leftarrow \joinrel \rhook $}}{}{}O\discretionary {\unhbox \voidb@x \hbox {\relax \fontsize {7}{8}\selectfont $\leftarrow \joinrel \rhook $}}{}{}RT}{10}{subsubsection.4.1.2.3}
\contentsline {subsection}{\numberline {4.1.3}Function Documentation}{10}{subsection.4.1.3}
\contentsline {subsubsection}{\numberline {4.1.3.1}check\discretionary {\unhbox \voidb@x \hbox {\relax \fontsize {7}{8}\selectfont $\leftarrow \joinrel \rhook $}}{}{}Iter\discretionary {\unhbox \voidb@x \hbox {\relax \fontsize {7}{8}\selectfont $\leftarrow \joinrel \rhook $}}{}{}Inhibitor()}{10}{subsubsection.4.1.3.1}
\contentsline {subsubsection}{\numberline {4.1.3.2}dmr\discretionary {\unhbox \voidb@x \hbox {\relax \fontsize {7}{8}\selectfont $\leftarrow \joinrel \rhook $}}{}{}\_\discretionary {\unhbox \voidb@x \hbox {\relax \fontsize {7}{8}\selectfont $\leftarrow \joinrel \rhook $}}{}{}detach()}{10}{subsubsection.4.1.3.2}
\contentsline {subsubsection}{\numberline {4.1.3.3}dmr\discretionary {\unhbox \voidb@x \hbox {\relax \fontsize {7}{8}\selectfont $\leftarrow \joinrel \rhook $}}{}{}\_\discretionary {\unhbox \voidb@x \hbox {\relax \fontsize {7}{8}\selectfont $\leftarrow \joinrel \rhook $}}{}{}mpi\discretionary {\unhbox \voidb@x \hbox {\relax \fontsize {7}{8}\selectfont $\leftarrow \joinrel \rhook $}}{}{}\_\discretionary {\unhbox \voidb@x \hbox {\relax \fontsize {7}{8}\selectfont $\leftarrow \joinrel \rhook $}}{}{}recv()}{11}{subsubsection.4.1.3.3}
\contentsline {subsubsection}{\numberline {4.1.3.4}dmr\discretionary {\unhbox \voidb@x \hbox {\relax \fontsize {7}{8}\selectfont $\leftarrow \joinrel \rhook $}}{}{}\_\discretionary {\unhbox \voidb@x \hbox {\relax \fontsize {7}{8}\selectfont $\leftarrow \joinrel \rhook $}}{}{}mpi\discretionary {\unhbox \voidb@x \hbox {\relax \fontsize {7}{8}\selectfont $\leftarrow \joinrel \rhook $}}{}{}\_\discretionary {\unhbox \voidb@x \hbox {\relax \fontsize {7}{8}\selectfont $\leftarrow \joinrel \rhook $}}{}{}send()}{11}{subsubsection.4.1.3.4}
\contentsline {subsubsection}{\numberline {4.1.3.5}dmr\discretionary {\unhbox \voidb@x \hbox {\relax \fontsize {7}{8}\selectfont $\leftarrow \joinrel \rhook $}}{}{}\_\discretionary {\unhbox \voidb@x \hbox {\relax \fontsize {7}{8}\selectfont $\leftarrow \joinrel \rhook $}}{}{}reconfiguration()}{12}{subsubsection.4.1.3.5}
\contentsline {subsubsection}{\numberline {4.1.3.6}dmr\discretionary {\unhbox \voidb@x \hbox {\relax \fontsize {7}{8}\selectfont $\leftarrow \joinrel \rhook $}}{}{}\_\discretionary {\unhbox \voidb@x \hbox {\relax \fontsize {7}{8}\selectfont $\leftarrow \joinrel \rhook $}}{}{}set\discretionary {\unhbox \voidb@x \hbox {\relax \fontsize {7}{8}\selectfont $\leftarrow \joinrel \rhook $}}{}{}\_\discretionary {\unhbox \voidb@x \hbox {\relax \fontsize {7}{8}\selectfont $\leftarrow \joinrel \rhook $}}{}{}parameters()}{13}{subsubsection.4.1.3.6}
\contentsline {chapter}{Index}{15}{section*.8}
